{
  "name": "pedido",
  "plural": "pedidos",
  "base": "PersistedModel",
  "idInjection": true,
  "options": {
    "validateUpsert": true
  },
  "properties": {
    "nombre": {
      "type": "string",
      "required": true
    },
    "cedula": {
      "type": "number",
      "required": true
    },
    "bday": {
      "type": "string",
      "required": false
    },
    "ciudad": {
      "type": "string",
      "required": false
    },
    "direccion": {
      "type": "string",
      "required": true
    },
    "direccionenvio": {
      "type": "string",
      "required": true
    },
    "telefono": {
      "type": "number",
      "required": true
    },
    "politicas": {
      "type": "boolean",
      "required": true
    },
    "usuarioinstagram": {
      "type": "string",
      "required": false
    },
    "pago": {
      "type": "string",
      "required": true
    },
    "estado": {
      "type": "string",
      "required": true
    },
    "fecharecepcion": {
      "type": "date",
      "required": true
    },
    "precio": {
      "type": "number",
      "required": true
    },
    "iva": {
      "type": "number",
      "required": true
    },
    "total": {
      "type": "number",
      "required": true
    },
    "costoenvio": {
      "type": "number",
      "required": true
    },
    "id_user": {
      "type": "string",
      "required": true
    },
    "referencecode": {
      "type": "string",
      "required": true
    },
    "envioexpress": {
      "type": "boolean",
      "required": false
    }
  },
  "validations": [],
  "relations": {
    "pedido_productopedido": {
      "type": "hasMany",
      "model": "productopedido",
      "foreignKey": "id_pedido"
    }
  },
  "acls": [],
  "methods": {}
}
